<?xml version='1.0' encoding='UTF-8'?>
<glyph name="C" format="2">
  <advance width="500"/>
  <unicode hex="0043"/>
  <outline>
    <component base="comp_square" yOffset="297"/>
    <component base="comp_square" yOffset="198"/>
    <component base="comp_square" yOffset="99"/>
    <component base="comp_square" xOffset="99"/>
    <component base="comp_square" xOffset="198"/>
    <component base="comp_square" xOffset="297"/>
    <component base="comp_square" xOffset="297" yOffset="99"/>
    <component base="comp_square" xOffset="99" yOffset="396"/>
    <component base="comp_square" xOffset="198" yOffset="396"/>
    <component base="comp_square" xOffset="297" yOffset="396"/>
    <component base="comp_square" xOffset="297" yOffset="297"/>
    <component base="comp_square" xOffset="99" yOffset="297"/>
    <component base="comp_square" xOffset="99" yOffset="99"/>
  </outline>
</glyph>
